[21567:21567:0601/024048:ERROR:CONSOLE(1)] "Failed to set referrer policy: The value 'strict-origin' is not one of 'always', 'default', 'never', 'no-referrer', 'no-referrer-when-downgrade', 'origin', 'origin-when-crossorigin', or 'unsafe-url'. The referrer policy has been left unchanged.", source: https://www.google.com/_/chrome/newtab?espv=2&ie=UTF-8 (1)
[21567:21567:0601/024112:INFO:CONSOLE(6)] "Uncaught SyntaxError: Unexpected token ...", source: https://cdn.jsdelivr.net/npm/bootstrap@5.1.3/dist/js/bootstrap.min.js (6)
[21567:21567:0601/024123:INFO:CONSOLE(6)] "Uncaught SyntaxError: Unexpected token ...", source: https://cdn.jsdelivr.net/npm/bootstrap@5.1.3/dist/js/bootstrap.min.js (6)
[21567:21567:0601/024137:INFO:CONSOLE(6)] "Uncaught SyntaxError: Unexpected token ...", source: https://cdn.jsdelivr.net/npm/bootstrap@5.1.3/dist/js/bootstrap.min.js (6)
[21567:21567:0601/024145:INFO:CONSOLE(6)] "Uncaught SyntaxError: Unexpected token ...", source: https://cdn.jsdelivr.net/npm/bootstrap@5.1.3/dist/js/bootstrap.min.js (6)
[21567:21567:0601/024146:INFO:CONSOLE(9)] "Abarth", source: http://192.168.1.15:8001/DOM/low/main.js (9)
[21567:21567:0601/024146:INFO:CONSOLE(9)] "AC", source: http://192.168.1.15:8001/DOM/low/main.js (9)
[21567:21567:0601/024146:INFO:CONSOLE(9)] "Acura", source: http://192.168.1.15:8001/DOM/low/main.js (9)
[21567:21567:0601/024146:INFO:CONSOLE(9)] "Aixam", source: http://192.168.1.15:8001/DOM/low/main.js (9)
[21567:21567:0601/024146:INFO:CONSOLE(9)] "Alfa Romeo", source: http://192.168.1.15:8001/DOM/low/main.js (9)
[21567:21567:0601/024146:INFO:CONSOLE(9)] "Ariel", source: http://192.168.1.15:8001/DOM/low/main.js (9)
[21567:21567:0601/024146:INFO:CONSOLE(9)] "Arrinera", source: http://192.168.1.15:8001/DOM/low/main.js (9)
[21567:21567:0601/024146:INFO:CONSOLE(9)] "Aston Martin", source: http://192.168.1.15:8001/DOM/low/main.js (9)
[21567:21567:0601/024146:INFO:CONSOLE(9)] "Audi", source: http://192.168.1.15:8001/DOM/low/main.js (9)
[21567:21567:0601/024146:INFO:CONSOLE(9)] "Bentley", source: http://192.168.1.15:8001/DOM/low/main.js (9)
[21567:21567:0601/024146:INFO:CONSOLE(9)] "BMW", source: http://192.168.1.15:8001/DOM/low/main.js (9)
[21567:21567:0601/024146:INFO:CONSOLE(9)] "Bugatti", source: http://192.168.1.15:8001/DOM/low/main.js (9)
[21567:21567:0601/024146:INFO:CONSOLE(9)] "Buick", source: http://192.168.1.15:8001/DOM/low/main.js (9)
[21567:21567:0601/024146:INFO:CONSOLE(9)] "Cadillac", source: http://192.168.1.15:8001/DOM/low/main.js (9)
[21567:21567:0601/024146:INFO:CONSOLE(9)] "Caterham", source: http://192.168.1.15:8001/DOM/low/main.js (9)
[21567:21567:0601/024146:INFO:CONSOLE(9)] "Chevrolet", source: http://192.168.1.15:8001/DOM/low/main.js (9)
[21567:21567:0601/024146:INFO:CONSOLE(9)] "Chrysler", source: http://192.168.1.15:8001/DOM/low/main.js (9)
[21567:21567:0601/024146:INFO:CONSOLE(9)] "Citroën", source: http://192.168.1.15:8001/DOM/low/main.js (9)
[21567:21567:0601/024146:INFO:CONSOLE(9)] "Corvette", source: http://192.168.1.15:8001/DOM/low/main.js (9)
[21567:21567:0601/024146:INFO:CONSOLE(9)] "Dacia", source: http://192.168.1.15:8001/DOM/low/main.js (9)
[21567:21567:0601/024146:INFO:CONSOLE(9)] "Daf", source: http://192.168.1.15:8001/DOM/low/main.js (9)
[21567:21567:0601/024146:INFO:CONSOLE(9)] "Daihatsu", source: http://192.168.1.15:8001/DOM/low/main.js (9)
[21567:21567:0601/024146:INFO:CONSOLE(9)] "Dodge", source: http://192.168.1.15:8001/DOM/low/main.js (9)
[21567:21567:0601/024146:INFO:CONSOLE(9)] "DR Motor", source: http://192.168.1.15:8001/DOM/low/main.js (9)
[21567:21567:0601/024146:INFO:CONSOLE(9)] "Elfin", source: http://192.168.1.15:8001/DOM/low/main.js (9)
[21567:21567:0601/024146:INFO:CONSOLE(9)] "Ferrari", source: http://192.168.1.15:8001/DOM/low/main.js (9)
[21567:21567:0601/024146:INFO:CONSOLE(9)] "Fiat", source: http://192.168.1.15:8001/DOM/low/main.js (9)
[21567:21567:0601/024146:INFO:CONSOLE(9)] "Ford", source: http://192.168.1.15:8001/DOM/low/main.js (9)
[21567:21567:0601/024146:INFO:CONSOLE(9)] "Gaz", source: http://192.168.1.15:8001/DOM/low/main.js (9)
[21567:21567:0601/024146:INFO:CONSOLE(9)] "Geely", source: http://192.168.1.15:8001/DOM/low/main.js (9)
[21567:21567:0601/024146:INFO:CONSOLE(9)] "Gillet", source: http://192.168.1.15:8001/DOM/low/main.js (9)
[21567:21567:0601/024146:INFO:CONSOLE(9)] "Ginetta", source: http://192.168.1.15:8001/DOM/low/main.js (9)
[21567:21567:0601/024146:INFO:CONSOLE(9)] "General Motors", source: http://192.168.1.15:8001/DOM/low/main.js (9)
[21567:21567:0601/024146:INFO:CONSOLE(9)] "GMC", source: http://192.168.1.15:8001/DOM/low/main.js (9)
[21567:21567:0601/024146:INFO:CONSOLE(9)] "Great Wall", source: http://192.168.1.15:8001/DOM/low/main.js (9)
[21567:21567:0601/024146:INFO:CONSOLE(9)] "Gumpert", source: http://192.168.1.15:8001/DOM/low/main.js (9)
[21567:21567:0601/024146:INFO:CONSOLE(9)] "Hennessey logo", source: http://192.168.1.15:8001/DOM/low/main.js (9)
[21567:21567:0601/024146:INFO:CONSOLE(9)] "Holden", source: http://192.168.1.15:8001/DOM/low/main.js (9)
[21567:21567:0601/024146:INFO:CONSOLE(9)] "Honda", source: http://192.168.1.15:8001/DOM/low/main.js (9)
[21567:21567:0601/024146:INFO:CONSOLE(9)] "Hummer", source: http://192.168.1.15:8001/DOM/low/main.js (9)
[21567:21567:0601/024146:INFO:CONSOLE(9)] "Hyundai", source: http://192.168.1.15:8001/DOM/low/main.js (9)
[21567:21567:0601/024146:INFO:CONSOLE(9)] "Infiniti", source: http://192.168.1.15:8001/DOM/low/main.js (9)
[21567:21567:0601/024146:INFO:CONSOLE(9)] "Isuzu", source: http://192.168.1.15:8001/DOM/low/main.js (9)
[21567:21567:0601/024146:INFO:CONSOLE(9)] "Jaguar", source: http://192.168.1.15:8001/DOM/low/main.js (9)
[21567:21567:0601/024146:INFO:CONSOLE(9)] "Jeep", source: http://192.168.1.15:8001/DOM/low/main.js (9)
[21567:21567:0601/024146:INFO:CONSOLE(9)] "Joss", source: http://192.168.1.15:8001/DOM/low/main.js (9)
[21567:21567:0601/024146:INFO:CONSOLE(9)] "Kia", source: http://192.168.1.15:8001/DOM/low/main.js (9)
[21567:21567:0601/024146:INFO:CONSOLE(9)] "Koenigsegg", source: http://192.168.1.15:8001/DOM/low/main.js (9)
[21567:21567:0601/024146:INFO:CONSOLE(9)] "Lada", source: http://192.168.1.15:8001/DOM/low/main.js (9)
[21567:21567:0601/024146:INFO:CONSOLE(9)] "Lamborghini", source: http://192.168.1.15:8001/DOM/low/main.js (9)
[21567:21567:0601/024146:INFO:CONSOLE(9)] "Lancia", source: http://192.168.1.15:8001/DOM/low/main.js (9)
[21567:21567:0601/024146:INFO:CONSOLE(9)] "Land Rover", source: http://192.168.1.15:8001/DOM/low/main.js (9)
[21567:21567:0601/024146:INFO:CONSOLE(9)] "Lexus", source: http://192.168.1.15:8001/DOM/low/main.js (9)
[21567:21567:0601/024146:INFO:CONSOLE(9)] "Lincoln", source: http://192.168.1.15:8001/DOM/low/main.js (9)
[21567:21567:0601/024146:INFO:CONSOLE(9)] "Lotus", source: http://192.168.1.15:8001/DOM/low/main.js (9)
[21567:21567:0601/024146:INFO:CONSOLE(9)] "Luxgen", source: http://192.168.1.15:8001/DOM/low/main.js (9)
[21567:21567:0601/024146:INFO:CONSOLE(9)] "Mahindra", source: http://192.168.1.15:8001/DOM/low/main.js (9)
[21567:21567:0601/024146:INFO:CONSOLE(9)] "Maruti Suzuki", source: http://192.168.1.15:8001/DOM/low/main.js (9)
[21567:21567:0601/024146:INFO:CONSOLE(9)] "Maserati", source: http://192.168.1.15:8001/DOM/low/main.js (9)
[21567:21567:0601/024146:INFO:CONSOLE(9)] "Maybach", source: http://192.168.1.15:8001/DOM/low/main.js (9)
[21567:21567:0601/024146:INFO:CONSOLE(9)] "Mazda", source: http://192.168.1.15:8001/DOM/low/main.js (9)
[21567:21567:0601/024146:INFO:CONSOLE(9)] "Mclaren", source: http://192.168.1.15:8001/DOM/low/main.js (9)
[21567:21567:0601/024146:INFO:CONSOLE(9)] "Mercedes", source: http://192.168.1.15:8001/DOM/low/main.js (9)
[21567:21567:0601/024146:INFO:CONSOLE(9)] "MG", source: http://192.168.1.15:8001/DOM/low/main.js (9)
[21567:21567:0601/024146:INFO:CONSOLE(9)] "Mini", source: http://192.168.1.15:8001/DOM/low/main.js (9)
[21567:21567:0601/024146:INFO:CONSOLE(9)] "Mitsubishi", source: http://192.168.1.15:8001/DOM/low/main.js (9)
[21567:21567:0601/024146:INFO:CONSOLE(9)] "Morgan Motor", source: http://192.168.1.15:8001/DOM/low/main.js (9)
[21567:21567:0601/024146:INFO:CONSOLE(9)] "Mustang logo", source: http://192.168.1.15:8001/DOM/low/main.js (9)
[21567:21567:0601/024146:INFO:CONSOLE(9)] "Nissan", source: http://192.168.1.15:8001/DOM/low/main.js (9)
[21567:21567:0601/024146:INFO:CONSOLE(9)] "Noble", source: http://192.168.1.15:8001/DOM/low/main.js (9)
[21567:21567:0601/024146:INFO:CONSOLE(9)] "Opel", source: http://192.168.1.15:8001/DOM/low/main.js (9)
[21567:21567:0601/024146:INFO:CONSOLE(9)] "Pagani", source: http://192.168.1.15:8001/DOM/low/main.js (9)
[21567:21567:0601/024146:INFO:CONSOLE(9)] "Panoz", source: http://192.168.1.15:8001/DOM/low/main.js (9)
[21567:21567:0601/024146:INFO:CONSOLE(9)] "Perodua", source: http://192.168.1.15:8001/DOM/low/main.js (9)
[21567:21567:0601/024146:INFO:CONSOLE(9)] "Peugeot", source: http://192.168.1.15:8001/DOM/low/main.js (9)
[21567:21567:0601/024146:INFO:CONSOLE(9)] "Piaggio", source: http://192.168.1.15:8001/DOM/low/main.js (9)
[21567:21567:0601/024146:INFO:CONSOLE(9)] "Pininfarina", source: http://192.168.1.15:8001/DOM/low/main.js (9)
[21567:21567:0601/024146:INFO:CONSOLE(9)] "Porsche", source: http://192.168.1.15:8001/DOM/low/main.js (9)
[21567:21567:0601/024146:INFO:CONSOLE(9)] "Proton", source: http://192.168.1.15:8001/DOM/low/main.js (9)
[21567:21567:0601/024146:INFO:CONSOLE(9)] "Renault", source: http://192.168.1.15:8001/DOM/low/main.js (9)
[21567:21567:0601/024146:INFO:CONSOLE(9)] "Reva", source: http://192.168.1.15:8001/DOM/low/main.js (9)
[21567:21567:0601/024146:INFO:CONSOLE(9)] "Rimac", source: http://192.168.1.15:8001/DOM/low/main.js (9)
[21567:21567:0601/024146:INFO:CONSOLE(9)] "Rolls Royce", source: http://192.168.1.15:8001/DOM/low/main.js (9)
[21567:21567:0601/024146:INFO:CONSOLE(9)] "Ruf logo", source: http://192.168.1.15:8001/DOM/low/main.js (9)
[21567:21567:0601/024146:INFO:CONSOLE(9)] "Saab", source: http://192.168.1.15:8001/DOM/low/main.js (9)
[21567:21567:0601/024146:INFO:CONSOLE(9)] "Scania", source: http://192.168.1.15:8001/DOM/low/main.js (9)
[21567:21567:0601/024146:INFO:CONSOLE(9)] "Scion", source: http://192.168.1.15:8001/DOM/low/main.js (9)
[21567:21567:0601/024146:INFO:CONSOLE(9)] "Seat", source: http://192.168.1.15:8001/DOM/low/main.js (9)
[21567:21567:0601/024146:INFO:CONSOLE(9)] "Shelby", source: http://192.168.1.15:8001/DOM/low/main.js (9)
[21567:21567:0601/024146:INFO:CONSOLE(9)] "Skoda", source: http://192.168.1.15:8001/DOM/low/main.js (9)
[21567:21567:0601/024146:INFO:CONSOLE(9)] "Smart", source: http://192.168.1.15:8001/DOM/low/main.js (9)
[21567:21567:0601/024146:INFO:CONSOLE(9)] "Spyker", source: http://192.168.1.15:8001/DOM/low/main.js (9)
[21567:21567:0601/024146:INFO:CONSOLE(9)] "Ssangyong", source: http://192.168.1.15:8001/DOM/low/main.js (9)
[21567:21567:0601/024146:INFO:CONSOLE(9)] "SSC", source: http://192.168.1.15:8001/DOM/low/main.js (9)
[21567:21567:0601/024146:INFO:CONSOLE(9)] "Subaru", source: http://192.168.1.15:8001/DOM/low/main.js (9)
[21567:21567:0601/024146:INFO:CONSOLE(9)] "Suzuki", source: http://192.168.1.15:8001/DOM/low/main.js (9)
[21567:21567:0601/024146:INFO:CONSOLE(9)] "Tata", source: http://192.168.1.15:8001/DOM/low/main.js (9)
[21567:21567:0601/024146:INFO:CONSOLE(9)] "Tatra", source: http://192.168.1.15:8001/DOM/low/main.js (9)
[21567:21567:0601/024146:INFO:CONSOLE(9)] "Tesla", source: http://192.168.1.15:8001/DOM/low/main.js (9)
[21567:21567:0601/024146:INFO:CONSOLE(9)] "Toyota", source: http://192.168.1.15:8001/DOM/low/main.js (9)
[21567:21567:0601/024146:INFO:CONSOLE(9)] "Tramontana", source: http://192.168.1.15:8001/DOM/low/main.js (9)
[21567:21567:0601/024146:INFO:CONSOLE(9)] "Troller", source: http://192.168.1.15:8001/DOM/low/main.js (9)
[21567:21567:0601/024146:INFO:CONSOLE(9)] "TVR", source: http://192.168.1.15:8001/DOM/low/main.js (9)
[21567:21567:0601/024146:INFO:CONSOLE(9)] "UAZ", source: http://192.168.1.15:8001/DOM/low/main.js (9)
[21567:21567:0601/024146:INFO:CONSOLE(9)] "Vandenbrink", source: http://192.168.1.15:8001/DOM/low/main.js (9)
[21567:21567:0601/024146:INFO:CONSOLE(9)] "Vauxhall", source: http://192.168.1.15:8001/DOM/low/main.js (9)
[21567:21567:0601/024146:INFO:CONSOLE(9)] "Vector Motors", source: http://192.168.1.15:8001/DOM/low/main.js (9)
[21567:21567:0601/024146:INFO:CONSOLE(9)] "Venturi", source: http://192.168.1.15:8001/DOM/low/main.js (9)
[21567:21567:0601/024146:INFO:CONSOLE(9)] "Volkswagen", source: http://192.168.1.15:8001/DOM/low/main.js (9)
[21567:21567:0601/024146:INFO:CONSOLE(9)] "Volvo", source: http://192.168.1.15:8001/DOM/low/main.js (9)
[21567:21567:0601/024146:INFO:CONSOLE(9)] "Wiesmann", source: http://192.168.1.15:8001/DOM/low/main.js (9)
[21567:21567:0601/024146:INFO:CONSOLE(9)] "Zagato", source: http://192.168.1.15:8001/DOM/low/main.js (9)
[21567:21567:0601/024146:INFO:CONSOLE(9)] "Zaz", source: http://192.168.1.15:8001/DOM/low/main.js (9)
[21567:21567:0601/024146:INFO:CONSOLE(9)] "Zil", source: http://192.168.1.15:8001/DOM/low/main.js (9)
[21567:21567:0601/024152:INFO:CONSOLE(9)] "Abarth", source: http://192.168.1.15:8001/DOM/low/main.js (9)
[21567:21567:0601/024152:INFO:CONSOLE(9)] "AC", source: http://192.168.1.15:8001/DOM/low/main.js (9)
[21567:21567:0601/024152:INFO:CONSOLE(9)] "Acura", source: http://192.168.1.15:8001/DOM/low/main.js (9)
[21567:21567:0601/024152:INFO:CONSOLE(9)] "Aixam", source: http://192.168.1.15:8001/DOM/low/main.js (9)
[21567:21567:0601/024152:INFO:CONSOLE(9)] "Alfa Romeo", source: http://192.168.1.15:8001/DOM/low/main.js (9)
[21567:21567:0601/024152:INFO:CONSOLE(9)] "Ariel", source: http://192.168.1.15:8001/DOM/low/main.js (9)
[21567:21567:0601/024152:INFO:CONSOLE(9)] "Arrinera", source: http://192.168.1.15:8001/DOM/low/main.js (9)
[21567:21567:0601/024152:INFO:CONSOLE(9)] "Aston Martin", source: http://192.168.1.15:8001/DOM/low/main.js (9)
[21567:21567:0601/024152:INFO:CONSOLE(9)] "Audi", source: http://192.168.1.15:8001/DOM/low/main.js (9)
[21567:21567:0601/024152:INFO:CONSOLE(9)] "Bentley", source: http://192.168.1.15:8001/DOM/low/main.js (9)
[21567:21567:0601/024152:INFO:CONSOLE(9)] "BMW", source: http://192.168.1.15:8001/DOM/low/main.js (9)
[21567:21567:0601/024152:INFO:CONSOLE(9)] "Bugatti", source: http://192.168.1.15:8001/DOM/low/main.js (9)
[21567:21567:0601/024152:INFO:CONSOLE(9)] "Buick", source: http://192.168.1.15:8001/DOM/low/main.js (9)
[21567:21567:0601/024152:INFO:CONSOLE(9)] "Cadillac", source: http://192.168.1.15:8001/DOM/low/main.js (9)
[21567:21567:0601/024152:INFO:CONSOLE(9)] "Caterham", source: http://192.168.1.15:8001/DOM/low/main.js (9)
[21567:21567:0601/024152:INFO:CONSOLE(9)] "Chevrolet", source: http://192.168.1.15:8001/DOM/low/main.js (9)
[21567:21567:0601/024152:INFO:CONSOLE(9)] "Chrysler", source: http://192.168.1.15:8001/DOM/low/main.js (9)
[21567:21567:0601/024152:INFO:CONSOLE(9)] "Citroën", source: http://192.168.1.15:8001/DOM/low/main.js (9)
[21567:21567:0601/024152:INFO:CONSOLE(9)] "Corvette", source: http://192.168.1.15:8001/DOM/low/main.js (9)
[21567:21567:0601/024152:INFO:CONSOLE(9)] "Dacia", source: http://192.168.1.15:8001/DOM/low/main.js (9)
[21567:21567:0601/024152:INFO:CONSOLE(9)] "Daf", source: http://192.168.1.15:8001/DOM/low/main.js (9)
[21567:21567:0601/024152:INFO:CONSOLE(9)] "Daihatsu", source: http://192.168.1.15:8001/DOM/low/main.js (9)
[21567:21567:0601/024152:INFO:CONSOLE(9)] "Dodge", source: http://192.168.1.15:8001/DOM/low/main.js (9)
[21567:21567:0601/024152:INFO:CONSOLE(9)] "DR Motor", source: http://192.168.1.15:8001/DOM/low/main.js (9)
[21567:21567:0601/024152:INFO:CONSOLE(9)] "Elfin", source: http://192.168.1.15:8001/DOM/low/main.js (9)
[21567:21567:0601/024152:INFO:CONSOLE(9)] "Ferrari", source: http://192.168.1.15:8001/DOM/low/main.js (9)
[21567:21567:0601/024152:INFO:CONSOLE(9)] "Fiat", source: http://192.168.1.15:8001/DOM/low/main.js (9)
[21567:21567:0601/024152:INFO:CONSOLE(9)] "Ford", source: http://192.168.1.15:8001/DOM/low/main.js (9)
[21567:21567:0601/024152:INFO:CONSOLE(9)] "Gaz", source: http://192.168.1.15:8001/DOM/low/main.js (9)
[21567:21567:0601/024152:INFO:CONSOLE(9)] "Geely", source: http://192.168.1.15:8001/DOM/low/main.js (9)
[21567:21567:0601/024152:INFO:CONSOLE(9)] "Gillet", source: http://192.168.1.15:8001/DOM/low/main.js (9)
[21567:21567:0601/024152:INFO:CONSOLE(9)] "Ginetta", source: http://192.168.1.15:8001/DOM/low/main.js (9)
[21567:21567:0601/024152:INFO:CONSOLE(9)] "General Motors", source: http://192.168.1.15:8001/DOM/low/main.js (9)
[21567:21567:0601/024152:INFO:CONSOLE(9)] "GMC", source: http://192.168.1.15:8001/DOM/low/main.js (9)
[21567:21567:0601/024152:INFO:CONSOLE(9)] "Great Wall", source: http://192.168.1.15:8001/DOM/low/main.js (9)
[21567:21567:0601/024152:INFO:CONSOLE(9)] "Gumpert", source: http://192.168.1.15:8001/DOM/low/main.js (9)
[21567:21567:0601/024152:INFO:CONSOLE(9)] "Hennessey logo", source: http://192.168.1.15:8001/DOM/low/main.js (9)
[21567:21567:0601/024152:INFO:CONSOLE(9)] "Holden", source: http://192.168.1.15:8001/DOM/low/main.js (9)
[21567:21567:0601/024152:INFO:CONSOLE(9)] "Honda", source: http://192.168.1.15:8001/DOM/low/main.js (9)
[21567:21567:0601/024152:INFO:CONSOLE(9)] "Hummer", source: http://192.168.1.15:8001/DOM/low/main.js (9)
[21567:21567:0601/024152:INFO:CONSOLE(9)] "Hyundai", source: http://192.168.1.15:8001/DOM/low/main.js (9)
[21567:21567:0601/024152:INFO:CONSOLE(9)] "Infiniti", source: http://192.168.1.15:8001/DOM/low/main.js (9)
[21567:21567:0601/024152:INFO:CONSOLE(9)] "Isuzu", source: http://192.168.1.15:8001/DOM/low/main.js (9)
[21567:21567:0601/024152:INFO:CONSOLE(9)] "Jaguar", source: http://192.168.1.15:8001/DOM/low/main.js (9)
[21567:21567:0601/024152:INFO:CONSOLE(9)] "Jeep", source: http://192.168.1.15:8001/DOM/low/main.js (9)
[21567:21567:0601/024152:INFO:CONSOLE(9)] "Joss", source: http://192.168.1.15:8001/DOM/low/main.js (9)
[21567:21567:0601/024152:INFO:CONSOLE(9)] "Kia", source: http://192.168.1.15:8001/DOM/low/main.js (9)
[21567:21567:0601/024152:INFO:CONSOLE(9)] "Koenigsegg", source: http://192.168.1.15:8001/DOM/low/main.js (9)
[21567:21567:0601/024152:INFO:CONSOLE(9)] "Lada", source: http://192.168.1.15:8001/DOM/low/main.js (9)
[21567:21567:0601/024152:INFO:CONSOLE(9)] "Lamborghini", source: http://192.168.1.15:8001/DOM/low/main.js (9)
[21567:21567:0601/024152:INFO:CONSOLE(9)] "Lancia", source: http://192.168.1.15:8001/DOM/low/main.js (9)
[21567:21567:0601/024152:INFO:CONSOLE(9)] "Land Rover", source: http://192.168.1.15:8001/DOM/low/main.js (9)
[21567:21567:0601/024152:INFO:CONSOLE(9)] "Lexus", source: http://192.168.1.15:8001/DOM/low/main.js (9)
[21567:21567:0601/024152:INFO:CONSOLE(9)] "Lincoln", source: http://192.168.1.15:8001/DOM/low/main.js (9)
[21567:21567:0601/024152:INFO:CONSOLE(9)] "Lotus", source: http://192.168.1.15:8001/DOM/low/main.js (9)
[21567:21567:0601/024152:INFO:CONSOLE(9)] "Luxgen", source: http://192.168.1.15:8001/DOM/low/main.js (9)
[21567:21567:0601/024152:INFO:CONSOLE(9)] "Mahindra", source: http://192.168.1.15:8001/DOM/low/main.js (9)
[21567:21567:0601/024152:INFO:CONSOLE(9)] "Maruti Suzuki", source: http://192.168.1.15:8001/DOM/low/main.js (9)
[21567:21567:0601/024152:INFO:CONSOLE(9)] "Maserati", source: http://192.168.1.15:8001/DOM/low/main.js (9)
[21567:21567:0601/024152:INFO:CONSOLE(9)] "Maybach", source: http://192.168.1.15:8001/DOM/low/main.js (9)
[21567:21567:0601/024152:INFO:CONSOLE(9)] "Mazda", source: http://192.168.1.15:8001/DOM/low/main.js (9)
[21567:21567:0601/024152:INFO:CONSOLE(9)] "Mclaren", source: http://192.168.1.15:8001/DOM/low/main.js (9)
[21567:21567:0601/024152:INFO:CONSOLE(9)] "Mercedes", source: http://192.168.1.15:8001/DOM/low/main.js (9)
[21567:21567:0601/024152:INFO:CONSOLE(9)] "MG", source: http://192.168.1.15:8001/DOM/low/main.js (9)
[21567:21567:0601/024152:INFO:CONSOLE(9)] "Mini", source: http://192.168.1.15:8001/DOM/low/main.js (9)
[21567:21567:0601/024152:INFO:CONSOLE(9)] "Mitsubishi", source: http://192.168.1.15:8001/DOM/low/main.js (9)
[21567:21567:0601/024152:INFO:CONSOLE(9)] "Morgan Motor", source: http://192.168.1.15:8001/DOM/low/main.js (9)
[21567:21567:0601/024152:INFO:CONSOLE(9)] "Mustang logo", source: http://192.168.1.15:8001/DOM/low/main.js (9)
[21567:21567:0601/024152:INFO:CONSOLE(9)] "Nissan", source: http://192.168.1.15:8001/DOM/low/main.js (9)
[21567:21567:0601/024152:INFO:CONSOLE(9)] "Noble", source: http://192.168.1.15:8001/DOM/low/main.js (9)
[21567:21567:0601/024152:INFO:CONSOLE(9)] "Opel", source: http://192.168.1.15:8001/DOM/low/main.js (9)
[21567:21567:0601/024152:INFO:CONSOLE(9)] "Pagani", source: http://192.168.1.15:8001/DOM/low/main.js (9)
[21567:21567:0601/024152:INFO:CONSOLE(9)] "Panoz", source: http://192.168.1.15:8001/DOM/low/main.js (9)
[21567:21567:0601/024152:INFO:CONSOLE(9)] "Perodua", source: http://192.168.1.15:8001/DOM/low/main.js (9)
[21567:21567:0601/024152:INFO:CONSOLE(9)] "Peugeot", source: http://192.168.1.15:8001/DOM/low/main.js (9)
[21567:21567:0601/024152:INFO:CONSOLE(9)] "Piaggio", source: http://192.168.1.15:8001/DOM/low/main.js (9)
[21567:21567:0601/024152:INFO:CONSOLE(9)] "Pininfarina", source: http://192.168.1.15:8001/DOM/low/main.js (9)
[21567:21567:0601/024152:INFO:CONSOLE(9)] "Porsche", source: http://192.168.1.15:8001/DOM/low/main.js (9)
[21567:21567:0601/024153:INFO:CONSOLE(9)] "Proton", source: http://192.168.1.15:8001/DOM/low/main.js (9)
[21567:21567:0601/024153:INFO:CONSOLE(9)] "Renault", source: http://192.168.1.15:8001/DOM/low/main.js (9)
[21567:21567:0601/024153:INFO:CONSOLE(9)] "Reva", source: http://192.168.1.15:8001/DOM/low/main.js (9)
[21567:21567:0601/024153:INFO:CONSOLE(9)] "Rimac", source: http://192.168.1.15:8001/DOM/low/main.js (9)
[21567:21567:0601/024153:INFO:CONSOLE(9)] "Rolls Royce", source: http://192.168.1.15:8001/DOM/low/main.js (9)
[21567:21567:0601/024153:INFO:CONSOLE(9)] "Ruf logo", source: http://192.168.1.15:8001/DOM/low/main.js (9)
[21567:21567:0601/024153:INFO:CONSOLE(9)] "Saab", source: http://192.168.1.15:8001/DOM/low/main.js (9)
[21567:21567:0601/024153:INFO:CONSOLE(9)] "Scania", source: http://192.168.1.15:8001/DOM/low/main.js (9)
[21567:21567:0601/024153:INFO:CONSOLE(9)] "Scion", source: http://192.168.1.15:8001/DOM/low/main.js (9)
[21567:21567:0601/024153:INFO:CONSOLE(9)] "Seat", source: http://192.168.1.15:8001/DOM/low/main.js (9)
[21567:21567:0601/024153:INFO:CONSOLE(9)] "Shelby", source: http://192.168.1.15:8001/DOM/low/main.js (9)
[21567:21567:0601/024153:INFO:CONSOLE(9)] "Skoda", source: http://192.168.1.15:8001/DOM/low/main.js (9)
[21567:21567:0601/024153:INFO:CONSOLE(9)] "Smart", source: http://192.168.1.15:8001/DOM/low/main.js (9)
[21567:21567:0601/024153:INFO:CONSOLE(9)] "Spyker", source: http://192.168.1.15:8001/DOM/low/main.js (9)
[21567:21567:0601/024153:INFO:CONSOLE(9)] "Ssangyong", source: http://192.168.1.15:8001/DOM/low/main.js (9)
[21567:21567:0601/024153:INFO:CONSOLE(9)] "SSC", source: http://192.168.1.15:8001/DOM/low/main.js (9)
[21567:21567:0601/024153:INFO:CONSOLE(9)] "Subaru", source: http://192.168.1.15:8001/DOM/low/main.js (9)
[21567:21567:0601/024153:INFO:CONSOLE(9)] "Suzuki", source: http://192.168.1.15:8001/DOM/low/main.js (9)
[21567:21567:0601/024153:INFO:CONSOLE(9)] "Tata", source: http://192.168.1.15:8001/DOM/low/main.js (9)
[21567:21567:0601/024153:INFO:CONSOLE(9)] "Tatra", source: http://192.168.1.15:8001/DOM/low/main.js (9)
[21567:21567:0601/024153:INFO:CONSOLE(9)] "Tesla", source: http://192.168.1.15:8001/DOM/low/main.js (9)
[21567:21567:0601/024153:INFO:CONSOLE(9)] "Toyota", source: http://192.168.1.15:8001/DOM/low/main.js (9)
[21567:21567:0601/024153:INFO:CONSOLE(9)] "Tramontana", source: http://192.168.1.15:8001/DOM/low/main.js (9)
[21567:21567:0601/024153:INFO:CONSOLE(9)] "Troller", source: http://192.168.1.15:8001/DOM/low/main.js (9)
[21567:21567:0601/024153:INFO:CONSOLE(9)] "TVR", source: http://192.168.1.15:8001/DOM/low/main.js (9)
[21567:21567:0601/024153:INFO:CONSOLE(9)] "UAZ", source: http://192.168.1.15:8001/DOM/low/main.js (9)
[21567:21567:0601/024153:INFO:CONSOLE(9)] "Vandenbrink", source: http://192.168.1.15:8001/DOM/low/main.js (9)
[21567:21567:0601/024153:INFO:CONSOLE(9)] "Vauxhall", source: http://192.168.1.15:8001/DOM/low/main.js (9)
[21567:21567:0601/024153:INFO:CONSOLE(9)] "Vector Motors", source: http://192.168.1.15:8001/DOM/low/main.js (9)
[21567:21567:0601/024153:INFO:CONSOLE(9)] "Venturi", source: http://192.168.1.15:8001/DOM/low/main.js (9)
[21567:21567:0601/024153:INFO:CONSOLE(9)] "Volkswagen", source: http://192.168.1.15:8001/DOM/low/main.js (9)
[21567:21567:0601/024153:INFO:CONSOLE(9)] "Volvo", source: http://192.168.1.15:8001/DOM/low/main.js (9)
[21567:21567:0601/024153:INFO:CONSOLE(9)] "Wiesmann", source: http://192.168.1.15:8001/DOM/low/main.js (9)
[21567:21567:0601/024153:INFO:CONSOLE(9)] "Zagato", source: http://192.168.1.15:8001/DOM/low/main.js (9)
[21567:21567:0601/024153:INFO:CONSOLE(9)] "Zaz", source: http://192.168.1.15:8001/DOM/low/main.js (9)
[21567:21567:0601/024153:INFO:CONSOLE(9)] "Zil", source: http://192.168.1.15:8001/DOM/low/main.js (9)
[21567:21567:0601/024153:INFO:CONSOLE(6)] "Uncaught SyntaxError: Unexpected token ...", source: https://cdn.jsdelivr.net/npm/bootstrap@5.1.3/dist/js/bootstrap.min.js (6)
[21567:21589:0601/024205:WARNING:spdy_session.cc(2247)] Received HEADERS for invalid stream 23
[21567:21567:0601/024209:INFO:CONSOLE(6)] "Uncaught SyntaxError: Unexpected token ...", source: https://cdn.jsdelivr.net/npm/bootstrap@5.1.3/dist/js/bootstrap.min.js (6)
[21567:21567:0601/024214:INFO:CONSOLE(0)] "Unrecognized Content-Security-Policy directive 'worker-src'.
", source: https://ogs.google.com/widget/callout?prid=19019113&pgid=19019112&puid=e17ca8c4d9c07df1&cce=1&dc=1&origin=https%3A%2F%2Fwww.google.com&cn=callout&pid=1&spid=1&hl=it (0)
[21567:21567:0601/024214:INFO:CONSOLE(0)] "Unrecognized Content-Security-Policy directive 'require-trusted-types-for'.
", source: https://ogs.google.com/widget/callout?prid=19019113&pgid=19019112&puid=e17ca8c4d9c07df1&cce=1&dc=1&origin=https%3A%2F%2Fwww.google.com&cn=callout&pid=1&spid=1&hl=it (0)
[21567:21567:0601/024303:INFO:CONSOLE(82)] "The XSS Auditor refused to execute a script in 'http://192.168.1.15:8001/DOM/low/brand_cars_list.html?default=%3Csvg%20onload=alert(%222%22)%3E' because its source code was found within the request. The auditor was enabled as the server sent neither an 'X-XSS-Protection' nor 'Content-Security-Policy' header.", source: http://192.168.1.15:8001/DOM/low/brand_cars_list.html?default=%3Csvg%20onload=alert(%222%22)%3E (82)
[21567:21567:0601/024304:INFO:CONSOLE(9)] "Abarth", source: http://192.168.1.15:8001/DOM/low/main.js (9)
[21567:21567:0601/024304:INFO:CONSOLE(9)] "AC", source: http://192.168.1.15:8001/DOM/low/main.js (9)
[21567:21567:0601/024304:INFO:CONSOLE(9)] "Acura", source: http://192.168.1.15:8001/DOM/low/main.js (9)
[21567:21567:0601/024304:INFO:CONSOLE(9)] "Aixam", source: http://192.168.1.15:8001/DOM/low/main.js (9)
[21567:21567:0601/024304:INFO:CONSOLE(9)] "Alfa Romeo", source: http://192.168.1.15:8001/DOM/low/main.js (9)
[21567:21567:0601/024304:INFO:CONSOLE(9)] "Ariel", source: http://192.168.1.15:8001/DOM/low/main.js (9)
[21567:21567:0601/024304:INFO:CONSOLE(9)] "Arrinera", source: http://192.168.1.15:8001/DOM/low/main.js (9)
[21567:21567:0601/024304:INFO:CONSOLE(9)] "Aston Martin", source: http://192.168.1.15:8001/DOM/low/main.js (9)
[21567:21567:0601/024304:INFO:CONSOLE(9)] "Audi", source: http://192.168.1.15:8001/DOM/low/main.js (9)
[21567:21567:0601/024304:INFO:CONSOLE(9)] "Bentley", source: http://192.168.1.15:8001/DOM/low/main.js (9)
[21567:21567:0601/024304:INFO:CONSOLE(9)] "BMW", source: http://192.168.1.15:8001/DOM/low/main.js (9)
[21567:21567:0601/024304:INFO:CONSOLE(9)] "Bugatti", source: http://192.168.1.15:8001/DOM/low/main.js (9)
[21567:21567:0601/024304:INFO:CONSOLE(9)] "Buick", source: http://192.168.1.15:8001/DOM/low/main.js (9)
[21567:21567:0601/024304:INFO:CONSOLE(9)] "Cadillac", source: http://192.168.1.15:8001/DOM/low/main.js (9)
[21567:21567:0601/024304:INFO:CONSOLE(9)] "Caterham", source: http://192.168.1.15:8001/DOM/low/main.js (9)
[21567:21567:0601/024304:INFO:CONSOLE(9)] "Chevrolet", source: http://192.168.1.15:8001/DOM/low/main.js (9)
[21567:21567:0601/024304:INFO:CONSOLE(9)] "Chrysler", source: http://192.168.1.15:8001/DOM/low/main.js (9)
[21567:21567:0601/024304:INFO:CONSOLE(9)] "Citroën", source: http://192.168.1.15:8001/DOM/low/main.js (9)
[21567:21567:0601/024304:INFO:CONSOLE(9)] "Corvette", source: http://192.168.1.15:8001/DOM/low/main.js (9)
[21567:21567:0601/024304:INFO:CONSOLE(9)] "Dacia", source: http://192.168.1.15:8001/DOM/low/main.js (9)
[21567:21567:0601/024304:INFO:CONSOLE(9)] "Daf", source: http://192.168.1.15:8001/DOM/low/main.js (9)
[21567:21567:0601/024304:INFO:CONSOLE(9)] "Daihatsu", source: http://192.168.1.15:8001/DOM/low/main.js (9)
[21567:21567:0601/024304:INFO:CONSOLE(9)] "Dodge", source: http://192.168.1.15:8001/DOM/low/main.js (9)
[21567:21567:0601/024304:INFO:CONSOLE(9)] "DR Motor", source: http://192.168.1.15:8001/DOM/low/main.js (9)
[21567:21567:0601/024304:INFO:CONSOLE(9)] "Elfin", source: http://192.168.1.15:8001/DOM/low/main.js (9)
[21567:21567:0601/024304:INFO:CONSOLE(9)] "Ferrari", source: http://192.168.1.15:8001/DOM/low/main.js (9)
[21567:21567:0601/024304:INFO:CONSOLE(9)] "Fiat", source: http://192.168.1.15:8001/DOM/low/main.js (9)
[21567:21567:0601/024304:INFO:CONSOLE(9)] "Ford", source: http://192.168.1.15:8001/DOM/low/main.js (9)
[21567:21567:0601/024304:INFO:CONSOLE(9)] "Gaz", source: http://192.168.1.15:8001/DOM/low/main.js (9)
[21567:21567:0601/024304:INFO:CONSOLE(9)] "Geely", source: http://192.168.1.15:8001/DOM/low/main.js (9)
[21567:21567:0601/024304:INFO:CONSOLE(9)] "Gillet", source: http://192.168.1.15:8001/DOM/low/main.js (9)
[21567:21567:0601/024304:INFO:CONSOLE(9)] "Ginetta", source: http://192.168.1.15:8001/DOM/low/main.js (9)
[21567:21567:0601/024304:INFO:CONSOLE(9)] "General Motors", source: http://192.168.1.15:8001/DOM/low/main.js (9)
[21567:21567:0601/024304:INFO:CONSOLE(9)] "GMC", source: http://192.168.1.15:8001/DOM/low/main.js (9)
[21567:21567:0601/024304:INFO:CONSOLE(9)] "Great Wall", source: http://192.168.1.15:8001/DOM/low/main.js (9)
[21567:21567:0601/024304:INFO:CONSOLE(9)] "Gumpert", source: http://192.168.1.15:8001/DOM/low/main.js (9)
[21567:21567:0601/024304:INFO:CONSOLE(9)] "Hennessey logo", source: http://192.168.1.15:8001/DOM/low/main.js (9)
[21567:21567:0601/024304:INFO:CONSOLE(9)] "Holden", source: http://192.168.1.15:8001/DOM/low/main.js (9)
[21567:21567:0601/024304:INFO:CONSOLE(9)] "Honda", source: http://192.168.1.15:8001/DOM/low/main.js (9)
[21567:21567:0601/024304:INFO:CONSOLE(9)] "Hummer", source: http://192.168.1.15:8001/DOM/low/main.js (9)
[21567:21567:0601/024304:INFO:CONSOLE(9)] "Hyundai", source: http://192.168.1.15:8001/DOM/low/main.js (9)
[21567:21567:0601/024304:INFO:CONSOLE(9)] "Infiniti", source: http://192.168.1.15:8001/DOM/low/main.js (9)
[21567:21567:0601/024304:INFO:CONSOLE(9)] "Isuzu", source: http://192.168.1.15:8001/DOM/low/main.js (9)
[21567:21567:0601/024304:INFO:CONSOLE(9)] "Jaguar", source: http://192.168.1.15:8001/DOM/low/main.js (9)
[21567:21567:0601/024304:INFO:CONSOLE(9)] "Jeep", source: http://192.168.1.15:8001/DOM/low/main.js (9)
[21567:21567:0601/024304:INFO:CONSOLE(9)] "Joss", source: http://192.168.1.15:8001/DOM/low/main.js (9)
[21567:21567:0601/024304:INFO:CONSOLE(9)] "Kia", source: http://192.168.1.15:8001/DOM/low/main.js (9)
[21567:21567:0601/024304:INFO:CONSOLE(9)] "Koenigsegg", source: http://192.168.1.15:8001/DOM/low/main.js (9)
[21567:21567:0601/024304:INFO:CONSOLE(9)] "Lada", source: http://192.168.1.15:8001/DOM/low/main.js (9)
[21567:21567:0601/024304:INFO:CONSOLE(9)] "Lamborghini", source: http://192.168.1.15:8001/DOM/low/main.js (9)
[21567:21567:0601/024304:INFO:CONSOLE(9)] "Lancia", source: http://192.168.1.15:8001/DOM/low/main.js (9)
[21567:21567:0601/024304:INFO:CONSOLE(9)] "Land Rover", source: http://192.168.1.15:8001/DOM/low/main.js (9)
[21567:21567:0601/024304:INFO:CONSOLE(9)] "Lexus", source: http://192.168.1.15:8001/DOM/low/main.js (9)
[21567:21567:0601/024304:INFO:CONSOLE(9)] "Lincoln", source: http://192.168.1.15:8001/DOM/low/main.js (9)
[21567:21567:0601/024304:INFO:CONSOLE(9)] "Lotus", source: http://192.168.1.15:8001/DOM/low/main.js (9)
[21567:21567:0601/024304:INFO:CONSOLE(9)] "Luxgen", source: http://192.168.1.15:8001/DOM/low/main.js (9)
[21567:21567:0601/024304:INFO:CONSOLE(9)] "Mahindra", source: http://192.168.1.15:8001/DOM/low/main.js (9)
[21567:21567:0601/024304:INFO:CONSOLE(9)] "Maruti Suzuki", source: http://192.168.1.15:8001/DOM/low/main.js (9)
[21567:21567:0601/024304:INFO:CONSOLE(9)] "Maserati", source: http://192.168.1.15:8001/DOM/low/main.js (9)
[21567:21567:0601/024304:INFO:CONSOLE(9)] "Maybach", source: http://192.168.1.15:8001/DOM/low/main.js (9)
[21567:21567:0601/024304:INFO:CONSOLE(9)] "Mazda", source: http://192.168.1.15:8001/DOM/low/main.js (9)
[21567:21567:0601/024304:INFO:CONSOLE(9)] "Mclaren", source: http://192.168.1.15:8001/DOM/low/main.js (9)
[21567:21567:0601/024304:INFO:CONSOLE(9)] "Mercedes", source: http://192.168.1.15:8001/DOM/low/main.js (9)
[21567:21567:0601/024304:INFO:CONSOLE(9)] "MG", source: http://192.168.1.15:8001/DOM/low/main.js (9)
[21567:21567:0601/024304:INFO:CONSOLE(9)] "Mini", source: http://192.168.1.15:8001/DOM/low/main.js (9)
[21567:21567:0601/024304:INFO:CONSOLE(9)] "Mitsubishi", source: http://192.168.1.15:8001/DOM/low/main.js (9)
[21567:21567:0601/024304:INFO:CONSOLE(9)] "Morgan Motor", source: http://192.168.1.15:8001/DOM/low/main.js (9)
[21567:21567:0601/024304:INFO:CONSOLE(9)] "Mustang logo", source: http://192.168.1.15:8001/DOM/low/main.js (9)
[21567:21567:0601/024304:INFO:CONSOLE(9)] "Nissan", source: http://192.168.1.15:8001/DOM/low/main.js (9)
[21567:21567:0601/024304:INFO:CONSOLE(9)] "Noble", source: http://192.168.1.15:8001/DOM/low/main.js (9)
[21567:21567:0601/024304:INFO:CONSOLE(9)] "Opel", source: http://192.168.1.15:8001/DOM/low/main.js (9)
[21567:21567:0601/024304:INFO:CONSOLE(9)] "Pagani", source: http://192.168.1.15:8001/DOM/low/main.js (9)
[21567:21567:0601/024304:INFO:CONSOLE(9)] "Panoz", source: http://192.168.1.15:8001/DOM/low/main.js (9)
[21567:21567:0601/024304:INFO:CONSOLE(9)] "Perodua", source: http://192.168.1.15:8001/DOM/low/main.js (9)
[21567:21567:0601/024304:INFO:CONSOLE(9)] "Peugeot", source: http://192.168.1.15:8001/DOM/low/main.js (9)
[21567:21567:0601/024304:INFO:CONSOLE(9)] "Piaggio", source: http://192.168.1.15:8001/DOM/low/main.js (9)
[21567:21567:0601/024304:INFO:CONSOLE(9)] "Pininfarina", source: http://192.168.1.15:8001/DOM/low/main.js (9)
[21567:21567:0601/024304:INFO:CONSOLE(9)] "Porsche", source: http://192.168.1.15:8001/DOM/low/main.js (9)
[21567:21567:0601/024304:INFO:CONSOLE(9)] "Proton", source: http://192.168.1.15:8001/DOM/low/main.js (9)
[21567:21567:0601/024304:INFO:CONSOLE(9)] "Renault", source: http://192.168.1.15:8001/DOM/low/main.js (9)
[21567:21567:0601/024304:INFO:CONSOLE(9)] "Reva", source: http://192.168.1.15:8001/DOM/low/main.js (9)
[21567:21567:0601/024304:INFO:CONSOLE(9)] "Rimac", source: http://192.168.1.15:8001/DOM/low/main.js (9)
[21567:21567:0601/024304:INFO:CONSOLE(9)] "Rolls Royce", source: http://192.168.1.15:8001/DOM/low/main.js (9)
[21567:21567:0601/024304:INFO:CONSOLE(9)] "Ruf logo", source: http://192.168.1.15:8001/DOM/low/main.js (9)
[21567:21567:0601/024304:INFO:CONSOLE(9)] "Saab", source: http://192.168.1.15:8001/DOM/low/main.js (9)
[21567:21567:0601/024304:INFO:CONSOLE(9)] "Scania", source: http://192.168.1.15:8001/DOM/low/main.js (9)
[21567:21567:0601/024304:INFO:CONSOLE(9)] "Scion", source: http://192.168.1.15:8001/DOM/low/main.js (9)
[21567:21567:0601/024304:INFO:CONSOLE(9)] "Seat", source: http://192.168.1.15:8001/DOM/low/main.js (9)
[21567:21567:0601/024304:INFO:CONSOLE(9)] "Shelby", source: http://192.168.1.15:8001/DOM/low/main.js (9)
[21567:21567:0601/024304:INFO:CONSOLE(9)] "Skoda", source: http://192.168.1.15:8001/DOM/low/main.js (9)
[21567:21567:0601/024304:INFO:CONSOLE(9)] "Smart", source: http://192.168.1.15:8001/DOM/low/main.js (9)
[21567:21567:0601/024304:INFO:CONSOLE(9)] "Spyker", source: http://192.168.1.15:8001/DOM/low/main.js (9)
[21567:21567:0601/024304:INFO:CONSOLE(9)] "Ssangyong", source: http://192.168.1.15:8001/DOM/low/main.js (9)
[21567:21567:0601/024304:INFO:CONSOLE(9)] "SSC", source: http://192.168.1.15:8001/DOM/low/main.js (9)
[21567:21567:0601/024304:INFO:CONSOLE(9)] "Subaru", source: http://192.168.1.15:8001/DOM/low/main.js (9)
[21567:21567:0601/024304:INFO:CONSOLE(9)] "Suzuki", source: http://192.168.1.15:8001/DOM/low/main.js (9)
[21567:21567:0601/024304:INFO:CONSOLE(9)] "Tata", source: http://192.168.1.15:8001/DOM/low/main.js (9)
[21567:21567:0601/024304:INFO:CONSOLE(9)] "Tatra", source: http://192.168.1.15:8001/DOM/low/main.js (9)
[21567:21567:0601/024304:INFO:CONSOLE(9)] "Tesla", source: http://192.168.1.15:8001/DOM/low/main.js (9)
[21567:21567:0601/024304:INFO:CONSOLE(9)] "Toyota", source: http://192.168.1.15:8001/DOM/low/main.js (9)
[21567:21567:0601/024304:INFO:CONSOLE(9)] "Tramontana", source: http://192.168.1.15:8001/DOM/low/main.js (9)
[21567:21567:0601/024304:INFO:CONSOLE(9)] "Troller", source: http://192.168.1.15:8001/DOM/low/main.js (9)
[21567:21567:0601/024304:INFO:CONSOLE(9)] "TVR", source: http://192.168.1.15:8001/DOM/low/main.js (9)
[21567:21567:0601/024304:INFO:CONSOLE(9)] "UAZ", source: http://192.168.1.15:8001/DOM/low/main.js (9)
[21567:21567:0601/024304:INFO:CONSOLE(9)] "Vandenbrink", source: http://192.168.1.15:8001/DOM/low/main.js (9)
[21567:21567:0601/024304:INFO:CONSOLE(9)] "Vauxhall", source: http://192.168.1.15:8001/DOM/low/main.js (9)
[21567:21567:0601/024304:INFO:CONSOLE(9)] "Vector Motors", source: http://192.168.1.15:8001/DOM/low/main.js (9)
[21567:21567:0601/024304:INFO:CONSOLE(9)] "Venturi", source: http://192.168.1.15:8001/DOM/low/main.js (9)
[21567:21567:0601/024304:INFO:CONSOLE(9)] "Volkswagen", source: http://192.168.1.15:8001/DOM/low/main.js (9)
[21567:21567:0601/024304:INFO:CONSOLE(9)] "Volvo", source: http://192.168.1.15:8001/DOM/low/main.js (9)
[21567:21567:0601/024304:INFO:CONSOLE(9)] "Wiesmann", source: http://192.168.1.15:8001/DOM/low/main.js (9)
[21567:21567:0601/024304:INFO:CONSOLE(9)] "Zagato", source: http://192.168.1.15:8001/DOM/low/main.js (9)
[21567:21567:0601/024304:INFO:CONSOLE(9)] "Zaz", source: http://192.168.1.15:8001/DOM/low/main.js (9)
[21567:21567:0601/024304:INFO:CONSOLE(9)] "Zil", source: http://192.168.1.15:8001/DOM/low/main.js (9)
[21567:21567:0601/024304:INFO:CONSOLE(6)] "Uncaught SyntaxError: Unexpected token ...", source: https://cdn.jsdelivr.net/npm/bootstrap@5.1.3/dist/js/bootstrap.min.js (6)
[21567:21567:0601/024319:INFO:CONSOLE(6)] "Uncaught SyntaxError: Unexpected token ...", source: https://cdn.jsdelivr.net/npm/bootstrap@5.1.3/dist/js/bootstrap.min.js (6)
[21567:21567:0601/024325:INFO:CONSOLE(6)] "Uncaught SyntaxError: Unexpected token ...", source: https://cdn.jsdelivr.net/npm/bootstrap@5.1.3/dist/js/bootstrap.min.js (6)
[21567:21567:0601/024403:ERROR:navigation_entry_screenshot_manager.cc(141)] Invalid entry with unique id: 25
[21567:21567:0601/024403:INFO:CONSOLE(76)] "The XSS Auditor refused to execute a script in 'http://192.168.1.15:8001/DOM/medium/countries.php?default=Afghanistan#<svg onload=alert("1")>' because its source code was found within the request. The auditor was enabled as the server sent neither an 'X-XSS-Protection' nor 'Content-Security-Policy' header.", source: http://192.168.1.15:8001/DOM/medium/countries.php?default=Afghanistan (76)
[21567:21567:0601/024404:INFO:CONSOLE(6)] "Uncaught SyntaxError: Unexpected token ...", source: https://cdn.jsdelivr.net/npm/bootstrap@5.1.3/dist/js/bootstrap.min.js (6)
[21567:21567:0601/024424:INFO:CONSOLE(6)] "Uncaught SyntaxError: Unexpected token ...", source: https://cdn.jsdelivr.net/npm/bootstrap@5.1.3/dist/js/bootstrap.min.js (6)
[21567:21567:0601/024432:INFO:CONSOLE(6)] "Uncaught SyntaxError: Unexpected token ...", source: https://cdn.jsdelivr.net/npm/bootstrap@5.1.3/dist/js/bootstrap.min.js (6)
[21567:21567:0601/024456:ERROR:navigation_entry_screenshot_manager.cc(141)] Invalid entry with unique id: 32
[21567:21567:0601/024456:INFO:CONSOLE(74)] "The XSS Auditor refused to execute a script in 'http://192.168.1.15:8001/DOM/high/languages.php?default=English#<svg onload=alert("1")>' because its source code was found within the request. The auditor was enabled as the server sent neither an 'X-XSS-Protection' nor 'Content-Security-Policy' header.", source: http://192.168.1.15:8001/DOM/high/languages.php?default=English (74)
[21567:21567:0601/024458:INFO:CONSOLE(6)] "Uncaught SyntaxError: Unexpected token ...", source: https://cdn.jsdelivr.net/npm/bootstrap@5.1.3/dist/js/bootstrap.min.js (6)
[21567:21567:0601/024505:WARNING:url_request_context_getter.cc(43)] URLRequestContextGetter leaking due to no owning thread.
[21567:21567:0601/024505:ERROR:selection_owner.cc(196)] SelectionClear

[2045:2045:0601/033759:INFO:CONSOLE(6)] "Uncaught SyntaxError: Unexpected token ...", source: https://cdn.jsdelivr.net/npm/bootstrap@5.1.3/dist/js/bootstrap.min.js (6)
[2045:2045:0601/033811:INFO:CONSOLE(6)] "Uncaught SyntaxError: Unexpected token ...", source: https://cdn.jsdelivr.net/npm/bootstrap@5.1.3/dist/js/bootstrap.min.js (6)
[2045:2045:0601/033811:INFO:CONSOLE(84)] "Uncaught ReferenceError: Holder is not defined", source: http://192.168.1.15:8001/levels.html (84)
[2045:2045:0601/033823:INFO:CONSOLE(6)] "Uncaught SyntaxError: Unexpected token ...", source: https://cdn.jsdelivr.net/npm/bootstrap@5.1.3/dist/js/bootstrap.min.js (6)
[2045:2045:0601/033832:INFO:CONSOLE(6)] "Uncaught SyntaxError: Unexpected token ...", source: https://cdn.jsdelivr.net/npm/bootstrap@5.1.3/dist/js/bootstrap.min.js (6)
[2045:2045:0601/033846:INFO:CONSOLE(72)] "The XSS Auditor refused to execute a script in 'http://192.168.1.15:8001/REFLECTED/low/sayhello.php?name=%3Csvg+onload%3Dalert%28docuement.cookie%29%27%3E&Say+Hello=Submit' because its source code was found within the request. The auditor was enabled as the server sent neither an 'X-XSS-Protection' nor 'Content-Security-Policy' header.", source: http://192.168.1.15:8001/REFLECTED/low/sayhello.php?name=%3Csvg+onload%3Dalert%28docuement.cookie%29%27%3E&Say+Hello=Submit (72)
[2045:2045:0601/033849:INFO:CONSOLE(6)] "Uncaught SyntaxError: Unexpected token ...", source: https://cdn.jsdelivr.net/npm/bootstrap@5.1.3/dist/js/bootstrap.min.js (6)
[2045:2045:0601/033857:INFO:CONSOLE(6)] "Uncaught SyntaxError: Unexpected token ...", source: https://cdn.jsdelivr.net/npm/bootstrap@5.1.3/dist/js/bootstrap.min.js (6)
[2045:2045:0601/033909:INFO:CONSOLE(72)] "The XSS Auditor refused to execute a script in 'http://192.168.1.15:8001/REFLECTED/medium/sayhello.php?name=%3Csvg+onload%3Dalert%28docuement.cookie%29%27%3E' because its source code was found within the request. The auditor was enabled as the server sent neither an 'X-XSS-Protection' nor 'Content-Security-Policy' header.", source: http://192.168.1.15:8001/REFLECTED/medium/sayhello.php?name=%3Csvg+onload%3Dalert%28docuement.cookie%29%27%3E (72)
[2045:2045:0601/033913:INFO:CONSOLE(6)] "Uncaught SyntaxError: Unexpected token ...", source: https://cdn.jsdelivr.net/npm/bootstrap@5.1.3/dist/js/bootstrap.min.js (6)
[2045:2045:0601/033925:INFO:CONSOLE(6)] "Uncaught SyntaxError: Unexpected token ...", source: https://cdn.jsdelivr.net/npm/bootstrap@5.1.3/dist/js/bootstrap.min.js (6)
[2045:2045:0601/033932:INFO:CONSOLE(71)] "The XSS Auditor refused to execute a script in 'http://192.168.1.15:8001/REFLECTED/high/sayhello.php?name=%3Csvg+onload%3Dalert%28docuement.cookie%29%27%3E' because its source code was found within the request. The auditor was enabled as the server sent neither an 'X-XSS-Protection' nor 'Content-Security-Policy' header.", source: http://192.168.1.15:8001/REFLECTED/high/sayhello.php?name=%3Csvg+onload%3Dalert%28docuement.cookie%29%27%3E (71)
[2045:2045:0601/033933:INFO:CONSOLE(6)] "Uncaught SyntaxError: Unexpected token ...", source: https://cdn.jsdelivr.net/npm/bootstrap@5.1.3/dist/js/bootstrap.min.js (6)
[2045:2045:0601/033945:INFO:CONSOLE(6)] "Uncaught SyntaxError: Unexpected token ...", source: https://cdn.jsdelivr.net/npm/bootstrap@5.1.3/dist/js/bootstrap.min.js (6)
[2045:2045:0601/033950:INFO:CONSOLE(6)] "Uncaught SyntaxError: Unexpected token ...", source: https://cdn.jsdelivr.net/npm/bootstrap@5.1.3/dist/js/bootstrap.min.js (6)
[2045:2045:0601/034001:INFO:CONSOLE(6)] "Uncaught SyntaxError: Unexpected token ...", source: https://cdn.jsdelivr.net/npm/bootstrap@5.1.3/dist/js/bootstrap.min.js (6)
[2045:2045:0601/034008:INFO:CONSOLE(6)] "Uncaught SyntaxError: Unexpected token ...", source: https://cdn.jsdelivr.net/npm/bootstrap@5.1.3/dist/js/bootstrap.min.js (6)
[2045:2045:0601/034022:INFO:CONSOLE(6)] "Uncaught SyntaxError: Unexpected token ...", source: https://cdn.jsdelivr.net/npm/bootstrap@5.1.3/dist/js/bootstrap.min.js (6)
[2045:2045:0601/034022:INFO:CONSOLE(95)] "The XSS Auditor refused to execute a script in 'http://192.168.1.15:8001/STORED/low/cv_presentation.php' because its source code was found within the request. The auditor was enabled as the server sent neither an 'X-XSS-Protection' nor 'Content-Security-Policy' header.", source: http://192.168.1.15:8001/STORED/low/cv_presentation.php (95)
[2045:2045:0601/034038:INFO:CONSOLE(6)] "Uncaught SyntaxError: Unexpected token ...", source: https://cdn.jsdelivr.net/npm/bootstrap@5.1.3/dist/js/bootstrap.min.js (6)
[2045:2045:0601/034052:INFO:CONSOLE(6)] "Uncaught SyntaxError: Unexpected token ...", source: https://cdn.jsdelivr.net/npm/bootstrap@5.1.3/dist/js/bootstrap.min.js (6)
[2045:2045:0601/034052:INFO:CONSOLE(98)] "The XSS Auditor refused to execute a script in 'http://192.168.1.15:8001/STORED/medium/cv_presentation.php' because its source code was found within the request. The auditor was enabled as the server sent neither an 'X-XSS-Protection' nor 'Content-Security-Policy' header.", source: http://192.168.1.15:8001/STORED/medium/cv_presentation.php (98)
[2045:2045:0601/034059:INFO:CONSOLE(6)] "Uncaught SyntaxError: Unexpected token ...", source: https://cdn.jsdelivr.net/npm/bootstrap@5.1.3/dist/js/bootstrap.min.js (6)
[2045:2045:0601/034115:INFO:CONSOLE(6)] "Uncaught SyntaxError: Unexpected token ...", source: https://cdn.jsdelivr.net/npm/bootstrap@5.1.3/dist/js/bootstrap.min.js (6)
[2045:2045:0601/034115:INFO:CONSOLE(100)] "The XSS Auditor refused to execute a script in 'http://192.168.1.15:8001/STORED/high/cv_presentation.php' because its source code was found within the request. The auditor was enabled as the server sent neither an 'X-XSS-Protection' nor 'Content-Security-Policy' header.", source: http://192.168.1.15:8001/STORED/high/cv_presentation.php (100)
[2045:2045:0601/034241:WARNING:url_request_context_getter.cc(43)] URLRequestContextGetter leaking due to no owning thread.